; ModuleID = '1buildCFG.bc'
target datalayout = "e-p:32:32:32-i1:8:8-i8:8:8-i16:16:16-i32:32:32-i64:32:64-f32:32:32-f64:32:64-v64:64:64-v128:128:128-a0:0:64-f80:32:32-f128:128:128-n8:16:32"
target triple = "i386-pc-linux-gnu"

%struct._IO_FILE = type { i32, i8*, i8*, i8*, i8*, i8*, i8*, i8*, i8*, i8*, i8*, i8*, %struct._IO_marker*, %struct._IO_FILE*, i32, i32, i32, i16, i8, [1 x i8], i8*, i64, i8*, i8*, i8*, i8*, i32, i32, [40 x i8] }
%struct._IO_marker = type { %struct._IO_marker*, %struct._IO_FILE*, i32 }

@stderr = external unnamed_addr global %struct._IO_FILE*
@.str = private unnamed_addr constant [28 x i8] c"usage: ./program int1 int2\0A\00", align 1
@.str1 = private unnamed_addr constant [7 x i8] c"x = %d\00", align 1
@.str2 = private unnamed_addr constant [10 x i8] c"a/b = %d\0A\00", align 1
@0 = internal constant [24 x i8] c"can't find debug info: \00"
@1 = internal constant [11 x i8] c"main.entry\00"
@2 = internal constant [53 x i8] c"/home/zhouyan/work/test/test_length_n_subpath/1.c: 8\00"
@3 = internal constant [8 x i8] c"main.bb\00"
@4 = internal constant [54 x i8] c"/home/zhouyan/work/test/test_length_n_subpath/1.c: 11\00"
@5 = internal constant [9 x i8] c"main.bb1\00"
@6 = internal constant [54 x i8] c"/home/zhouyan/work/test/test_length_n_subpath/1.c: 14\00"
@7 = internal constant [9 x i8] c"main.bb2\00"
@8 = internal constant [54 x i8] c"/home/zhouyan/work/test/test_length_n_subpath/1.c: 16\00"
@9 = internal constant [9 x i8] c"main.bb3\00"
@10 = internal constant [54 x i8] c"/home/zhouyan/work/test/test_length_n_subpath/1.c: 18\00"
@11 = internal constant [9 x i8] c"main.bb4\00"
@12 = internal constant [54 x i8] c"/home/zhouyan/work/test/test_length_n_subpath/1.c: 22\00"
@13 = internal constant [9 x i8] c"main.bb5\00"
@14 = internal constant [54 x i8] c"/home/zhouyan/work/test/test_length_n_subpath/1.c: 23\00"
@15 = internal constant [9 x i8] c"main.bb6\00"
@16 = internal constant [54 x i8] c"/home/zhouyan/work/test/test_length_n_subpath/1.c: 23\00"
@17 = internal constant [9 x i8] c"main.bb7\00"
@18 = internal constant [54 x i8] c"/home/zhouyan/work/test/test_length_n_subpath/1.c: 23\00"
@19 = internal constant [12 x i8] c"main.return\00"
@20 = internal constant [24 x i8] c"can't find debug info: \00"
@21 = internal constant [8 x i8] c"f.entry\00"
@22 = internal constant [54 x i8] c"/home/zhouyan/work/test/test_length_n_subpath/1.c: 30\00"
@23 = internal constant [5 x i8] c"f.bb\00"
@24 = internal constant [54 x i8] c"/home/zhouyan/work/test/test_length_n_subpath/1.c: 32\00"
@25 = internal constant [6 x i8] c"f.bb1\00"
@26 = internal constant [54 x i8] c"/home/zhouyan/work/test/test_length_n_subpath/1.c: 32\00"
@27 = internal constant [9 x i8] c"f.return\00"
@28 = internal constant [24 x i8] c"can't find debug info: \00"
@29 = internal constant [8 x i8] c"g.entry\00"
@30 = internal constant [54 x i8] c"/home/zhouyan/work/test/test_length_n_subpath/1.c: 37\00"
@31 = internal constant [5 x i8] c"g.bb\00"
@32 = internal constant [54 x i8] c"/home/zhouyan/work/test/test_length_n_subpath/1.c: 38\00"
@33 = internal constant [6 x i8] c"g.bb1\00"
@34 = internal constant [54 x i8] c"/home/zhouyan/work/test/test_length_n_subpath/1.c: 38\00"
@35 = internal constant [6 x i8] c"g.bb2\00"
@36 = internal constant [54 x i8] c"/home/zhouyan/work/test/test_length_n_subpath/1.c: 41\00"
@37 = internal constant [6 x i8] c"g.bb3\00"
@38 = internal constant [54 x i8] c"/home/zhouyan/work/test/test_length_n_subpath/1.c: 40\00"
@39 = internal constant [6 x i8] c"g.bb4\00"
@40 = internal constant [54 x i8] c"/home/zhouyan/work/test/test_length_n_subpath/1.c: 40\00"
@41 = internal constant [6 x i8] c"g.bb5\00"
@42 = internal constant [54 x i8] c"/home/zhouyan/work/test/test_length_n_subpath/1.c: 44\00"
@43 = internal constant [6 x i8] c"g.bb6\00"
@44 = internal constant [54 x i8] c"/home/zhouyan/work/test/test_length_n_subpath/1.c: 46\00"
@45 = internal constant [6 x i8] c"g.bb7\00"
@46 = internal constant [54 x i8] c"/home/zhouyan/work/test/test_length_n_subpath/1.c: 46\00"
@47 = internal constant [9 x i8] c"g.return\00"

define i32 @main(i32 %argc, i8** %argv) nounwind {
entry:
  %0 = call i32 @recordBasicBlock(i8* getelementptr inbounds ([11 x i8]* @1, i32 0, i32 0), i8* getelementptr inbounds ([24 x i8]* @0, i32 0, i32 0))
  %argc_addr = alloca i32, align 4
  %argv_addr = alloca i8**, align 4
  %retval = alloca i32
  %1 = alloca i32
  %x = alloca i32
  %y = alloca i32
  %"alloca point" = bitcast i32 0 to i32
  call void @llvm.dbg.declare(metadata !{i32* %argc_addr}, metadata !15), !dbg !16
  store i32 %argc, i32* %argc_addr
  call void @llvm.dbg.declare(metadata !{i8*** %argv_addr}, metadata !17), !dbg !16
  store i8** %argv, i8*** %argv_addr
  call void @llvm.dbg.declare(metadata !{i32* %x}, metadata !18), !dbg !20
  call void @llvm.dbg.declare(metadata !{i32* %y}, metadata !21), !dbg !22
  %2 = load i32* %argc_addr, align 4, !dbg !23
  %3 = icmp ne i32 %2, 3, !dbg !23
  br i1 %3, label %bb, label %bb1, !dbg !23

bb:                                               ; preds = %entry
  %4 = call i32 @recordBasicBlock(i8* getelementptr inbounds ([8 x i8]* @3, i32 0, i32 0), i8* getelementptr inbounds ([53 x i8]* @2, i32 0, i32 0))
  %5 = load %struct._IO_FILE** @stderr, align 4, !dbg !24
  %6 = bitcast %struct._IO_FILE* %5 to i8*, !dbg !24
  %7 = call i32 @fwrite(i8* getelementptr inbounds ([28 x i8]* @.str, i32 0, i32 0), i32 1, i32 27, i8* %6) nounwind, !dbg !24
  %8 = call i32 @coverageOutput()
  call void @exit(i32 -1) noreturn nounwind, !dbg !25
  unreachable, !dbg !25

bb1:                                              ; preds = %entry
  %9 = call i32 @recordBasicBlock(i8* getelementptr inbounds ([9 x i8]* @5, i32 0, i32 0), i8* getelementptr inbounds ([54 x i8]* @4, i32 0, i32 0))
  %10 = load i8*** %argv_addr, align 4, !dbg !20
  %11 = getelementptr inbounds i8** %10, i32 1, !dbg !20
  %12 = load i8** %11, align 1, !dbg !20
  %13 = call i32 @atoi(i8* %12) nounwind readonly, !dbg !20
  store i32 %13, i32* %x, align 4, !dbg !20
  %14 = load i8*** %argv_addr, align 4, !dbg !22
  %15 = getelementptr inbounds i8** %14, i32 2, !dbg !22
  %16 = load i8** %15, align 1, !dbg !22
  %17 = call i32 @atoi(i8* %16) nounwind readonly, !dbg !22
  store i32 %17, i32* %y, align 4, !dbg !22
  %18 = load i32* %x, align 4, !dbg !26
  %19 = load i32* %y, align 4, !dbg !26
  %20 = icmp sgt i32 %18, %19, !dbg !26
  br i1 %20, label %bb2, label %bb3, !dbg !26

bb2:                                              ; preds = %bb1
  %21 = call i32 @recordBasicBlock(i8* getelementptr inbounds ([9 x i8]* @7, i32 0, i32 0), i8* getelementptr inbounds ([54 x i8]* @6, i32 0, i32 0))
  %22 = load i32* %x, align 4, !dbg !27
  %23 = call i32 @f(i32 %22) nounwind, !dbg !27
  store i32 %23, i32* %x, align 4, !dbg !27
  br label %bb4, !dbg !27

bb3:                                              ; preds = %bb1
  %24 = call i32 @recordBasicBlock(i8* getelementptr inbounds ([9 x i8]* @9, i32 0, i32 0), i8* getelementptr inbounds ([54 x i8]* @8, i32 0, i32 0))
  %25 = load i32* %y, align 4, !dbg !28
  %26 = add nsw i32 %25, 1, !dbg !28
  store i32 %26, i32* %y, align 4, !dbg !28
  br label %bb4, !dbg !28

bb4:                                              ; preds = %bb3, %bb2
  %27 = call i32 @recordBasicBlock(i8* getelementptr inbounds ([9 x i8]* @11, i32 0, i32 0), i8* getelementptr inbounds ([54 x i8]* @10, i32 0, i32 0))
  %28 = load i32* %x, align 4, !dbg !29
  %29 = load i32* %y, align 4, !dbg !29
  call void @g(i32 %28, i32 %29) nounwind, !dbg !29
  %30 = load i32* %x, align 4, !dbg !30
  %31 = load i32* %y, align 4, !dbg !30
  call void @g(i32 %30, i32 %31) nounwind, !dbg !30
  %32 = load i32* %x, align 4, !dbg !31
  %33 = call i32 (i8*, ...)* @printf(i8* noalias getelementptr inbounds ([7 x i8]* @.str1, i32 0, i32 0), i32 %32) nounwind, !dbg !31
  %34 = load i32* %x, align 4, !dbg !32
  switch i32 %34, label %bb6 [
    i32 0, label %bb5
  ], !dbg !32

bb5:                                              ; preds = %bb4
  %35 = call i32 @recordBasicBlock(i8* getelementptr inbounds ([9 x i8]* @13, i32 0, i32 0), i8* getelementptr inbounds ([54 x i8]* @12, i32 0, i32 0))
  %36 = load i32* %x, align 4, !dbg !33
  %37 = load i32* %y, align 4, !dbg !33
  call void @g(i32 %36, i32 %37) nounwind, !dbg !33
  store i32 0, i32* %1, align 4, !dbg !34
  br label %bb7, !dbg !34

bb6:                                              ; preds = %bb4
  %38 = call i32 @recordBasicBlock(i8* getelementptr inbounds ([9 x i8]* @15, i32 0, i32 0), i8* getelementptr inbounds ([54 x i8]* @14, i32 0, i32 0))
  store i32 -1, i32* %1, align 4, !dbg !35
  br label %bb7, !dbg !35

bb7:                                              ; preds = %bb6, %bb5
  %39 = call i32 @recordBasicBlock(i8* getelementptr inbounds ([9 x i8]* @17, i32 0, i32 0), i8* getelementptr inbounds ([54 x i8]* @16, i32 0, i32 0))
  %40 = load i32* %1, align 4, !dbg !35
  store i32 %40, i32* %retval, align 4, !dbg !35
  br label %return, !dbg !35

return:                                           ; preds = %bb7
  %41 = call i32 @recordBasicBlock(i8* getelementptr inbounds ([12 x i8]* @19, i32 0, i32 0), i8* getelementptr inbounds ([54 x i8]* @18, i32 0, i32 0))
  %retval8 = load i32* %retval, !dbg !35
  %42 = call i32 @coverageOutput()
  ret i32 %retval8, !dbg !35
}

declare void @llvm.dbg.declare(metadata, metadata) nounwind readnone

declare i32 @fwrite(i8*, i32, i32, i8*)

declare void @exit(i32) noreturn nounwind

declare i32 @atoi(i8*) nounwind readonly

declare i32 @printf(i8* noalias, ...) nounwind

define i32 @f(i32 %a) nounwind {
entry:
  %0 = call i32 @recordBasicBlock(i8* getelementptr inbounds ([8 x i8]* @21, i32 0, i32 0), i8* getelementptr inbounds ([24 x i8]* @20, i32 0, i32 0))
  %a_addr = alloca i32, align 4
  %retval = alloca i32
  %1 = alloca i32
  %"alloca point" = bitcast i32 0 to i32
  call void @llvm.dbg.declare(metadata !{i32* %a_addr}, metadata !36), !dbg !37
  store i32 %a, i32* %a_addr
  %2 = load i32* %a_addr, align 4, !dbg !38
  %3 = icmp sgt i32 %2, 0, !dbg !38
  br i1 %3, label %bb, label %bb1, !dbg !38

bb:                                               ; preds = %entry
  %4 = call i32 @recordBasicBlock(i8* getelementptr inbounds ([5 x i8]* @23, i32 0, i32 0), i8* getelementptr inbounds ([54 x i8]* @22, i32 0, i32 0))
  %5 = call i32 @coverageOutput()
  call void @exit(i32 0) noreturn nounwind, !dbg !40
  unreachable, !dbg !40

bb1:                                              ; preds = %entry
  %6 = call i32 @recordBasicBlock(i8* getelementptr inbounds ([6 x i8]* @25, i32 0, i32 0), i8* getelementptr inbounds ([54 x i8]* @24, i32 0, i32 0))
  %7 = load i32* %a_addr, align 4, !dbg !41
  %8 = sub nsw i32 0, %7, !dbg !41
  store i32 %8, i32* %1, align 4, !dbg !41
  %9 = load i32* %1, align 4, !dbg !41
  store i32 %9, i32* %retval, align 4, !dbg !41
  br label %return, !dbg !41

return:                                           ; preds = %bb1
  %10 = call i32 @recordBasicBlock(i8* getelementptr inbounds ([9 x i8]* @27, i32 0, i32 0), i8* getelementptr inbounds ([54 x i8]* @26, i32 0, i32 0))
  %retval2 = load i32* %retval, !dbg !41
  ret i32 %retval2, !dbg !41
}

define void @g(i32 %a, i32 %b) nounwind {
entry:
  %0 = call i32 @recordBasicBlock(i8* getelementptr inbounds ([8 x i8]* @29, i32 0, i32 0), i8* getelementptr inbounds ([24 x i8]* @28, i32 0, i32 0))
  %a_addr = alloca i32, align 4
  %b_addr = alloca i32, align 4
  %"alloca point" = bitcast i32 0 to i32
  call void @llvm.dbg.declare(metadata !{i32* %a_addr}, metadata !42), !dbg !43
  store i32 %a, i32* %a_addr
  call void @llvm.dbg.declare(metadata !{i32* %b_addr}, metadata !44), !dbg !43
  store i32 %b, i32* %b_addr
  %1 = load i32* %a_addr, align 4, !dbg !45
  %2 = icmp eq i32 %1, 0, !dbg !45
  br i1 %2, label %bb, label %bb6, !dbg !45

bb:                                               ; preds = %entry
  %3 = call i32 @recordBasicBlock(i8* getelementptr inbounds ([5 x i8]* @31, i32 0, i32 0), i8* getelementptr inbounds ([54 x i8]* @30, i32 0, i32 0))
  %4 = load i32* %b_addr, align 4, !dbg !47
  %5 = icmp eq i32 %4, 0, !dbg !47
  br i1 %5, label %bb1, label %bb2, !dbg !47

bb1:                                              ; preds = %bb
  %6 = call i32 @recordBasicBlock(i8* getelementptr inbounds ([6 x i8]* @33, i32 0, i32 0), i8* getelementptr inbounds ([54 x i8]* @32, i32 0, i32 0))
  %7 = call i32 @coverageOutput()
  call void @exit(i32 0) noreturn nounwind, !dbg !48
  unreachable, !dbg !48

bb2:                                              ; preds = %bb
  %8 = call i32 @recordBasicBlock(i8* getelementptr inbounds ([6 x i8]* @35, i32 0, i32 0), i8* getelementptr inbounds ([54 x i8]* @34, i32 0, i32 0))
  br label %bb4, !dbg !48

bb3:                                              ; preds = %bb4
  %9 = call i32 @recordBasicBlock(i8* getelementptr inbounds ([6 x i8]* @37, i32 0, i32 0), i8* getelementptr inbounds ([54 x i8]* @36, i32 0, i32 0))
  %10 = load i32* %a_addr, align 4, !dbg !49
  %11 = add nsw i32 %10, 1, !dbg !49
  store i32 %11, i32* %a_addr, align 4, !dbg !49
  br label %bb4, !dbg !49

bb4:                                              ; preds = %bb3, %bb2
  %12 = call i32 @recordBasicBlock(i8* getelementptr inbounds ([6 x i8]* @39, i32 0, i32 0), i8* getelementptr inbounds ([54 x i8]* @38, i32 0, i32 0))
  %13 = load i32* %a_addr, align 4, !dbg !50
  %14 = icmp sle i32 %13, 9, !dbg !50
  br i1 %14, label %bb3, label %bb5, !dbg !50

bb5:                                              ; preds = %bb4
  %15 = call i32 @recordBasicBlock(i8* getelementptr inbounds ([6 x i8]* @41, i32 0, i32 0), i8* getelementptr inbounds ([54 x i8]* @40, i32 0, i32 0))
  br label %bb7, !dbg !50

bb6:                                              ; preds = %entry
  %16 = call i32 @recordBasicBlock(i8* getelementptr inbounds ([6 x i8]* @43, i32 0, i32 0), i8* getelementptr inbounds ([54 x i8]* @42, i32 0, i32 0))
  %17 = load i32* %a_addr, align 4, !dbg !51
  %18 = load i32* %b_addr, align 4, !dbg !51
  %19 = sdiv i32 %17, %18, !dbg !51
  %20 = call i32 (i8*, ...)* @printf(i8* noalias getelementptr inbounds ([10 x i8]* @.str2, i32 0, i32 0), i32 %19) nounwind, !dbg !51
  br label %bb7, !dbg !51

bb7:                                              ; preds = %bb6, %bb5
  %21 = call i32 @recordBasicBlock(i8* getelementptr inbounds ([6 x i8]* @45, i32 0, i32 0), i8* getelementptr inbounds ([54 x i8]* @44, i32 0, i32 0))
  br label %return, !dbg !52

return:                                           ; preds = %bb7
  %22 = call i32 @recordBasicBlock(i8* getelementptr inbounds ([9 x i8]* @47, i32 0, i32 0), i8* getelementptr inbounds ([54 x i8]* @46, i32 0, i32 0))
  ret void, !dbg !52
}

declare i32 @recordBasicBlock(i8*, i8*)

declare i32 @coverageOutput()

!llvm.dbg.sp = !{!0, !9, !12}

!0 = metadata !{i32 589870, i32 0, metadata !1, metadata !"main", metadata !"main", metadata !"main", metadata !1, i32 6, metadata !3, i1 false, i1 true, i32 0, i32 0, null, i32 256, i1 false, i32 (i32, i8**)* @main} ; [ DW_TAG_subprogram ]
!1 = metadata !{i32 589865, metadata !"1.c", metadata !"/home/zhouyan/work/test/test_length_n_subpath/", metadata !2} ; [ DW_TAG_file_type ]
!2 = metadata !{i32 589841, i32 0, i32 1, metadata !"1.c", metadata !"/home/zhouyan/work/test/test_length_n_subpath/", metadata !"4.2.1 (Based on Apple Inc. build 5658) (LLVM build 2.9)", i1 true, i1 false, metadata !"", i32 0} ; [ DW_TAG_compile_unit ]
!3 = metadata !{i32 589845, metadata !1, metadata !"", metadata !1, i32 0, i64 0, i64 0, i64 0, i32 0, null, metadata !4, i32 0, null} ; [ DW_TAG_subroutine_type ]
!4 = metadata !{metadata !5, metadata !5, metadata !6}
!5 = metadata !{i32 589860, metadata !1, metadata !"int", metadata !1, i32 0, i64 32, i64 32, i64 0, i32 0, i32 5} ; [ DW_TAG_base_type ]
!6 = metadata !{i32 589839, metadata !1, metadata !"", metadata !1, i32 0, i64 32, i64 32, i64 0, i32 0, metadata !7} ; [ DW_TAG_pointer_type ]
!7 = metadata !{i32 589839, metadata !1, metadata !"", metadata !1, i32 0, i64 32, i64 32, i64 0, i32 0, metadata !8} ; [ DW_TAG_pointer_type ]
!8 = metadata !{i32 589860, metadata !1, metadata !"char", metadata !1, i32 0, i64 8, i64 8, i64 0, i32 0, i32 6} ; [ DW_TAG_base_type ]
!9 = metadata !{i32 589870, i32 0, metadata !1, metadata !"f", metadata !"f", metadata !"f", metadata !1, i32 28, metadata !10, i1 false, i1 true, i32 0, i32 0, null, i32 256, i1 false, i32 (i32)* @f} ; [ DW_TAG_subprogram ]
!10 = metadata !{i32 589845, metadata !1, metadata !"", metadata !1, i32 0, i64 0, i64 0, i64 0, i32 0, null, metadata !11, i32 0, null} ; [ DW_TAG_subroutine_type ]
!11 = metadata !{metadata !5, metadata !5}
!12 = metadata !{i32 589870, i32 0, metadata !1, metadata !"g", metadata !"g", metadata !"g", metadata !1, i32 35, metadata !13, i1 false, i1 true, i32 0, i32 0, null, i32 256, i1 false, void (i32, i32)* @g} ; [ DW_TAG_subprogram ]
!13 = metadata !{i32 589845, metadata !1, metadata !"", metadata !1, i32 0, i64 0, i64 0, i64 0, i32 0, null, metadata !14, i32 0, null} ; [ DW_TAG_subroutine_type ]
!14 = metadata !{null, metadata !5, metadata !5}
!15 = metadata !{i32 590081, metadata !0, metadata !"argc", metadata !1, i32 6, metadata !5, i32 0} ; [ DW_TAG_arg_variable ]
!16 = metadata !{i32 6, i32 0, metadata !0, null}
!17 = metadata !{i32 590081, metadata !0, metadata !"argv", metadata !1, i32 6, metadata !6, i32 0} ; [ DW_TAG_arg_variable ]
!18 = metadata !{i32 590080, metadata !19, metadata !"x", metadata !1, i32 11, metadata !5, i32 0} ; [ DW_TAG_auto_variable ]
!19 = metadata !{i32 589835, metadata !0, i32 6, i32 0, metadata !1, i32 0} ; [ DW_TAG_lexical_block ]
!20 = metadata !{i32 11, i32 0, metadata !19, null}
!21 = metadata !{i32 590080, metadata !19, metadata !"y", metadata !1, i32 12, metadata !5, i32 0} ; [ DW_TAG_auto_variable ]
!22 = metadata !{i32 12, i32 0, metadata !19, null}
!23 = metadata !{i32 7, i32 0, metadata !19, null}
!24 = metadata !{i32 8, i32 0, metadata !19, null}
!25 = metadata !{i32 9, i32 0, metadata !19, null}
!26 = metadata !{i32 13, i32 0, metadata !19, null}
!27 = metadata !{i32 14, i32 0, metadata !19, null}
!28 = metadata !{i32 16, i32 0, metadata !19, null}
!29 = metadata !{i32 18, i32 0, metadata !19, null}
!30 = metadata !{i32 19, i32 0, metadata !19, null}
!31 = metadata !{i32 20, i32 0, metadata !19, null}
!32 = metadata !{i32 21, i32 0, metadata !19, null}
!33 = metadata !{i32 22, i32 0, metadata !19, null}
!34 = metadata !{i32 25, i32 0, metadata !19, null}
!35 = metadata !{i32 23, i32 0, metadata !19, null}
!36 = metadata !{i32 590081, metadata !9, metadata !"a", metadata !1, i32 28, metadata !5, i32 0} ; [ DW_TAG_arg_variable ]
!37 = metadata !{i32 28, i32 0, metadata !9, null}
!38 = metadata !{i32 29, i32 0, metadata !39, null}
!39 = metadata !{i32 589835, metadata !9, i32 28, i32 0, metadata !1, i32 1} ; [ DW_TAG_lexical_block ]
!40 = metadata !{i32 30, i32 0, metadata !39, null}
!41 = metadata !{i32 32, i32 0, metadata !39, null}
!42 = metadata !{i32 590081, metadata !12, metadata !"a", metadata !1, i32 35, metadata !5, i32 0} ; [ DW_TAG_arg_variable ]
!43 = metadata !{i32 35, i32 0, metadata !12, null}
!44 = metadata !{i32 590081, metadata !12, metadata !"b", metadata !1, i32 35, metadata !5, i32 0} ; [ DW_TAG_arg_variable ]
!45 = metadata !{i32 36, i32 0, metadata !46, null}
!46 = metadata !{i32 589835, metadata !12, i32 35, i32 0, metadata !1, i32 2} ; [ DW_TAG_lexical_block ]
!47 = metadata !{i32 37, i32 0, metadata !46, null}
!48 = metadata !{i32 38, i32 0, metadata !46, null}
!49 = metadata !{i32 41, i32 0, metadata !46, null}
!50 = metadata !{i32 40, i32 0, metadata !46, null}
!51 = metadata !{i32 44, i32 0, metadata !46, null}
!52 = metadata !{i32 46, i32 0, metadata !46, null}
