PLEASE check the file: ----------------------length_n_subpath.coverage----------
-----------------------------------------------------------
can't find debug info:  main.entry
can't find debug info:  h.entry
/home/zhouyan/work/test/test_length_n_subpath/test.c: 18 h.return
can't find debug info:  h.entry
/home/zhouyan/work/test/test_length_n_subpath/test.c: 18 h.return
/home/zhouyan/work/test/test_length_n_subpath/test.c: 56 main.return
